Library/Bee/artifacts/mvdfrm/Unity.PlasticSCM.Editor.ref.dll_F0D9BA1F3F167740.mvfrm
Library/Bee/artifacts/mvdfrm/Unity.Services.Core.Editor.ref.dll_EFC9CE7E6D3D6140.mvfrm
Library/Bee/artifacts/mvdfrm/UnityEditor.TestRunner.ref.dll_2594DFF003AE8269.mvfrm
Library/Bee/artifacts/mvdfrm/UnityEditor.UI.ref.dll_452FB8EBD860BCAB.mvfrm
Library/Bee/artifacts/mvdfrm/UnityEngine.TestRunner.ref.dll_F1B32A9E2F71E054.mvfrm
Library/Bee/artifacts/mvdfrm/UnityEngine.UI.ref.dll_01958F46DE82E516.mvfrm
Library/Bee/artifacts/mvdfrm/UnityEditor.Graphs.dll_31180A555EC96AE5.mvfrm
Library/Bee/artifacts/mvdfrm/UnityEditor.CoreModule.dll_8EBC55CF92A653B3.mvfrm
Library/Bee/artifacts/mvdfrm/UnityEditor.DeviceSimulatorModule.dll_5E60223787230D7E.mvfrm
Library/Bee/artifacts/mvdfrm/UnityEditor.DiagnosticsModule.dll_A305A5CB78CEB04C.mvfrm
Library/Bee/artifacts/mvdfrm/UnityEditor.GraphViewModule.dll_B7947FE52614C2A3.mvfrm
Library/Bee/artifacts/mvdfrm/UnityEditor.PackageManagerUIModule.dll_10E1F6B613048F4F.mvfrm
Library/Bee/artifacts/mvdfrm/UnityEditor.QuickSearchModule.dll_2E1526D8D1A5ACA5.mvfrm
Library/Bee/artifacts/mvdfrm/UnityEditor.SceneTemplateModule.dll_8B11558FAED021C6.mvfrm
Library/Bee/artifacts/mvdfrm/UnityEditor.TextCoreFontEngineModule.dll_84F7A2902026BFD1.mvfrm
Library/Bee/artifacts/mvdfrm/UnityEditor.TextCoreTextEngineModule.dll_CCDFD901AFAA78EF.mvfrm
Library/Bee/artifacts/mvdfrm/UnityEditor.UIBuilderModule.dll_0C1D2D0198CD3BD7.mvfrm
Library/Bee/artifacts/mvdfrm/UnityEditor.UIElementsModule.dll_54FA54A598B1540F.mvfrm
Library/Bee/artifacts/mvdfrm/UnityEditor.UIElementsSamplesModule.dll_7371DF49F52CE34E.mvfrm
Library/Bee/artifacts/mvdfrm/UnityEditor.UIServiceModule.dll_450F3E6482048BF1.mvfrm
Library/Bee/artifacts/mvdfrm/UnityEditor.UnityConnectModule.dll_442C363C5199DBE9.mvfrm
Library/Bee/artifacts/mvdfrm/UnityEditor.dll_E8ACC24B7F77E772.mvfrm
Library/Bee/artifacts/mvdfrm/UnityEngine.AIModule.dll_35CFDAF5052C29A7.mvfrm
Library/Bee/artifacts/mvdfrm/UnityEngine.ARModule.dll_EF429FF862498870.mvfrm
Library/Bee/artifacts/mvdfrm/UnityEngine.AccessibilityModule.dll_BDB6C126AF464963.mvfrm
Library/Bee/artifacts/mvdfrm/UnityEngine.AndroidJNIModule.dll_D3433D78E1D0C2E5.mvfrm
Library/Bee/artifacts/mvdfrm/UnityEngine.AnimationModule.dll_8619FC0E00719749.mvfrm
Library/Bee/artifacts/mvdfrm/UnityEngine.AssetBundleModule.dll_71FE59CA340C6197.mvfrm
Library/Bee/artifacts/mvdfrm/UnityEngine.AudioModule.dll_08D555CA616A7DFB.mvfrm
Library/Bee/artifacts/mvdfrm/UnityEngine.ClothModule.dll_6FBDB2C53B875CDF.mvfrm
Library/Bee/artifacts/mvdfrm/UnityEngine.ClusterInputModule.dll_C3C8AB520321AEAF.mvfrm
Library/Bee/artifacts/mvdfrm/UnityEngine.ClusterRendererModule.dll_640CE4A8F6DE1B02.mvfrm
Library/Bee/artifacts/mvdfrm/UnityEngine.CoreModule.dll_B1DD29223AABBEDE.mvfrm
Library/Bee/artifacts/mvdfrm/UnityEngine.CrashReportingModule.dll_884981751EC74936.mvfrm
Library/Bee/artifacts/mvdfrm/UnityEngine.DSPGraphModule.dll_39AFAEC3455CA59C.mvfrm
Library/Bee/artifacts/mvdfrm/UnityEngine.DirectorModule.dll_345E4D59D2FBD47B.mvfrm
Library/Bee/artifacts/mvdfrm/UnityEngine.GIModule.dll_CE0C2402A0DB11C1.mvfrm
Library/Bee/artifacts/mvdfrm/UnityEngine.GameCenterModule.dll_FD908793A811B3D6.mvfrm
Library/Bee/artifacts/mvdfrm/UnityEngine.GridModule.dll_8F4E4510530054D5.mvfrm
Library/Bee/artifacts/mvdfrm/UnityEngine.HotReloadModule.dll_0762BA13DBA4B2CB.mvfrm
Library/Bee/artifacts/mvdfrm/UnityEngine.IMGUIModule.dll_4134F531279C11DC.mvfrm
Library/Bee/artifacts/mvdfrm/UnityEngine.ImageConversionModule.dll_CFFEE2597902D2F6.mvfrm
Library/Bee/artifacts/mvdfrm/UnityEngine.InputLegacyModule.dll_034374E8CBFE1788.mvfrm
Library/Bee/artifacts/mvdfrm/UnityEngine.InputModule.dll_6F4B1D7AD7A2A29F.mvfrm
Library/Bee/artifacts/mvdfrm/UnityEngine.JSONSerializeModule.dll_1DCE4A62AE81A9ED.mvfrm
Library/Bee/artifacts/mvdfrm/UnityEngine.LocalizationModule.dll_021575A49A9DA1A8.mvfrm
Library/Bee/artifacts/mvdfrm/UnityEngine.NVIDIAModule.dll_C346A01F1D969B0A.mvfrm
Library/Bee/artifacts/mvdfrm/UnityEngine.ParticleSystemModule.dll_DB5BCAC18CD8D4C4.mvfrm
Library/Bee/artifacts/mvdfrm/UnityEngine.PerformanceReportingModule.dll_3B7BE488D69DB19D.mvfrm
Library/Bee/artifacts/mvdfrm/UnityEngine.Physics2DModule.dll_D2BFEBFEA16E8EDE.mvfrm
Library/Bee/artifacts/mvdfrm/UnityEngine.PhysicsModule.dll_38D84041612E862C.mvfrm
Library/Bee/artifacts/mvdfrm/UnityEngine.ProfilerModule.dll_66A486906C555B88.mvfrm
Library/Bee/artifacts/mvdfrm/UnityEngine.RuntimeInitializeOnLoadManagerInitializerModule.dll_9C4A7DDCF076BBA7.mvfrm
Library/Bee/artifacts/mvdfrm/UnityEngine.ScreenCaptureModule.dll_37B5F7E7C2EDD64F.mvfrm
Library/Bee/artifacts/mvdfrm/UnityEngine.SharedInternalsModule.dll_5410212EF030CE46.mvfrm
Library/Bee/artifacts/mvdfrm/UnityEngine.SpriteMaskModule.dll_E6BCFA23C9814950.mvfrm
Library/Bee/artifacts/mvdfrm/UnityEngine.SpriteShapeModule.dll_8B5F8724E9AE99A1.mvfrm
Library/Bee/artifacts/mvdfrm/UnityEngine.StreamingModule.dll_3AAEE95E4FF94E87.mvfrm
Library/Bee/artifacts/mvdfrm/UnityEngine.SubstanceModule.dll_1759FDA79B4C4C95.mvfrm
Library/Bee/artifacts/mvdfrm/UnityEngine.SubsystemsModule.dll_516A608597C93163.mvfrm
Library/Bee/artifacts/mvdfrm/UnityEngine.TLSModule.dll_7C1E9FE814896C00.mvfrm
Library/Bee/artifacts/mvdfrm/UnityEngine.TerrainModule.dll_531EBBB036ECCF1A.mvfrm
Library/Bee/artifacts/mvdfrm/UnityEngine.TerrainPhysicsModule.dll_DBD67394A61BCF51.mvfrm
Library/Bee/artifacts/mvdfrm/UnityEngine.TextCoreFontEngineModule.dll_03571DE333247E9C.mvfrm
Library/Bee/artifacts/mvdfrm/UnityEngine.TextCoreTextEngineModule.dll_4B3F5454C2A837BA.mvfrm
Library/Bee/artifacts/mvdfrm/UnityEngine.TextRenderingModule.dll_60F569F27A255644.mvfrm
Library/Bee/artifacts/mvdfrm/UnityEngine.TilemapModule.dll_F21B23314EA9B023.mvfrm
Library/Bee/artifacts/mvdfrm/UnityEngine.UIElementsModule.dll_55A8C1ED9AF56D5A.mvfrm
Library/Bee/artifacts/mvdfrm/UnityEngine.UIElementsNativeModule.dll_5B5BAB4B847CFF71.mvfrm
Library/Bee/artifacts/mvdfrm/UnityEngine.UIModule.dll_3143792261732F53.mvfrm
Library/Bee/artifacts/mvdfrm/UnityEngine.UNETModule.dll_4483710B87BAB457.mvfrm
Library/Bee/artifacts/mvdfrm/UnityEngine.UmbraModule.dll_83AA01E2EE91296E.mvfrm
Library/Bee/artifacts/mvdfrm/UnityEngine.UnityAnalyticsModule.dll_FAFB3B8B390026C0.mvfrm
Library/Bee/artifacts/mvdfrm/UnityEngine.UnityConnectModule.dll_318BBA4B4C21DC94.mvfrm
Library/Bee/artifacts/mvdfrm/UnityEngine.UnityCurlModule.dll_B9369D3F70858936.mvfrm
Library/Bee/artifacts/mvdfrm/UnityEngine.UnityTestProtocolModule.dll_2F34953C4F2838A4.mvfrm
Library/Bee/artifacts/mvdfrm/UnityEngine.UnityWebRequestAssetBundleModule.dll_E50290D2EC895991.mvfrm
Library/Bee/artifacts/mvdfrm/UnityEngine.UnityWebRequestAudioModule.dll_B37838675D087C35.mvfrm
Library/Bee/artifacts/mvdfrm/UnityEngine.UnityWebRequestModule.dll_E19DEA0383F76D75.mvfrm
Library/Bee/artifacts/mvdfrm/UnityEngine.UnityWebRequestTextureModule.dll_1630101770B8DAAA.mvfrm
Library/Bee/artifacts/mvdfrm/UnityEngine.UnityWebRequestWWWModule.dll_160199B0B267F426.mvfrm
Library/Bee/artifacts/mvdfrm/UnityEngine.VFXModule.dll_FCFD3856EAF6D56D.mvfrm
Library/Bee/artifacts/mvdfrm/UnityEngine.VRModule.dll_84159FA8032DB4CB.mvfrm
Library/Bee/artifacts/mvdfrm/UnityEngine.VehiclesModule.dll_AC2146D94D25A416.mvfrm
Library/Bee/artifacts/mvdfrm/UnityEngine.VideoModule.dll_2DDEDA3523FC99A0.mvfrm
Library/Bee/artifacts/mvdfrm/UnityEngine.VirtualTexturingModule.dll_7FE85FBA5D2B7FFC.mvfrm
Library/Bee/artifacts/mvdfrm/UnityEngine.WindModule.dll_282C044ACBE23D47.mvfrm
Library/Bee/artifacts/mvdfrm/UnityEngine.XRModule.dll_B6D462AC8C680229.mvfrm
Library/Bee/artifacts/mvdfrm/UnityEngine.dll_1B510923DDEB7457.mvfrm
Library/Bee/artifacts/mvdfrm/UnityEditor.LinuxStandalone.Extensions.dll_6DA222E46E556E0D.mvfrm
Library/Bee/artifacts/mvdfrm/UnityEditor.WebGL.Extensions.dll_DBED70E32E1C85AD.mvfrm
Library/Bee/artifacts/mvdfrm/Unity.Burst.Cecil.Mdb.dll_EEFCA6785B5E94C3.mvfrm
Library/Bee/artifacts/mvdfrm/Unity.Burst.Cecil.Pdb.dll_064F1EE7DA139646.mvfrm
Library/Bee/artifacts/mvdfrm/Unity.Burst.Cecil.Rocks.dll_3AA561FE6A203B26.mvfrm
Library/Bee/artifacts/mvdfrm/Unity.Burst.Cecil.dll_D2D84D139B2E8006.mvfrm
Library/Bee/artifacts/mvdfrm/Unity.Burst.Unsafe.dll_381CDB1BD3AAB6AD.mvfrm
Library/Bee/artifacts/mvdfrm/Unity.Plastic.Antlr3.Runtime.dll_E43112D7DDACAFB3.mvfrm
Library/Bee/artifacts/mvdfrm/Unity.Plastic.Newtonsoft.Json.dll_50035749F34B7CD2.mvfrm
Library/Bee/artifacts/mvdfrm/Unity.VisualScripting.IonicZip.dll_977982CB8EBC85E7.mvfrm
Library/Bee/artifacts/mvdfrm/Unity.VisualScripting.YamlDotNet.dll_8C679D94B3715BC5.mvfrm
Library/Bee/artifacts/mvdfrm/Unity.VisualScripting.Antlr3.Runtime.dll_3DD4C475E43A6BE4.mvfrm